edxtras • edxtras
…
# Use `purrr::map_df()` to summarize by the groups

states <- sort(unique(df1$state))
purrr::map_df(states, ~ 
    makeValidData(df1, 
        indexCol = 'state', 
        filtRep = .x, 
        rulesObj = projectValidationRules, 
        ruleset = 'df1Rules'
    )           
)
#> # A tibble: 104 × 6
#>    state metric       zipcode   lat   lng post_office_city
#>    <fct> <chr>          <dbl> <dbl> <dbl>            <dbl>
#>  1 AK    Completeness     100  86.9  86.9             86.9
#>  2 AK    Validity         100  86.9  86.5             62.4
#>  3 AL    Completeness     100  76.5  76.5             76.5
#>  4 AL    Validity         100  76.5  76.5             65.1
#>  5 AR    Completeness     100  83.2  83.2             83.2
#>  6 AR    Validity         100  83.2  83.2             64.4
#>  7 AZ    Completeness     100  71.3  71.3             71.3
#>  8 AZ    Validity         100  71.3  71.3             55.1
#>  9 CA    Completeness     100  66.4  66.4             66.4
#> 10 CA    Validity         100  66.4  66.4             38.2
#> # ℹ 94 more rows
…
